{
  "type": "FeatureCollection",
  "features": [
    {
      "type": "Feature",
      "properties": {
        "id": "5901012409",
        "name": "家音藥局",
        "phone": "02 -37652080",
        "address": "台北市松山區民生東路5段73號",
        "mask_adult": 0,
        "mask_child": 0,
        "updated": "2020/03/26 11:00:05",
        "available": "星期一上午看診、星期二上午看診、星期三上午看診、星期四上午看診、星期五上午看診、星期六上午看診、星期日上午看診、星期一下午看診、星期二下午看診、星期三下午看診、星期四下午看診、星期五下午看診、星期六下午看診、星期日下午看診、星期一晚上看診、星期二晚上看診、星期三晚上看診、星期四晚上看診、星期五晚上看診、星期六晚上看診、星期日晚上看診",
        "note": "口罩販售時段 週一~五 16:00起、週六、日18:00起",
        "custom_note": "實名制口罩販售時段\n週一~週五 14:00~22:00\n週六、週日 18:00~22:00\n每日依據配量販售，售完為止",
        "website": "",
        "county": "臺北市",
        "town": "松山區",
        "cunli": "東榮里",
        "service_periods": "NNNNNNNNNNNNNNNNNNNNN"
      },
      "geometry": {
        "type": "Point",
        "coordinates": [121.558489, 25.058709]
      }
    },
    {
      "type": "Feature",
      "properties": {
        "id": "5901012490",
        "name": "中美藥局",
        "phone": "02 -27627468",
        "address": "台北市松山區富錦街531號",
        "mask_adult": 135,
        "mask_child": 179,
        "updated": "2020/03/26 10:59:46",
        "available": "星期一上午看診、星期二上午看診、星期三上午看診、星期四上午看診、星期五上午看診、星期六上午看診、星期日上午看診、星期一下午看診、星期二下午看診、星期三下午看診、星期四下午看診、星期五下午看診、星期六下午看診、星期日下午看診、星期一晚上看診、星期二晚上看診、星期三晚上看診、星期四晚上看診、星期五晚上看診、星期六晚上看診、星期日晚上看診",
        "note": "本局每日早上9:00，發放口罩號碼牌",
        "custom_note": "",
        "website": "",
        "county": "臺北市",
        "town": "松山區",
        "cunli": "新益里",
        "service_periods": "NNNNNNNNNNNNNNNNNNNNN"
      },
      "geometry": {
        "type": "Point",
        "coordinates": [121.565481, 25.061285]
      }
    },
    {
      "type": "Feature",
      "properties": {
        "id": "5901012507",
        "name": "康麗藥局",
        "phone": "02 -27174117",
        "address": "台北市松山區南京東路3段303巷20號",
        "mask_adult": 84,
        "mask_child": 127,
        "updated": "2020/03/26 10:59:46",
        "available": "星期一上午看診、星期二上午看診、星期三上午看診、星期四上午看診、星期五上午看診、星期六上午看診、星期日上午休診、星期一下午看診、星期二下午看診、星期三下午看診、星期四下午看診、星期五下午看診、星期六下午看診、星期日下午休診、星期一晚上看診、星期二晚上看診、星期三晚上看診、星期四晚上看診、星期五晚上看診、星期六晚上看診、星期日晚上休診",
        "note": "春節營業時間請電洽",
        "custom_note": "",
        "website": "",
        "county": "臺北市",
        "town": "松山區",
        "cunli": "中正里",
        "service_periods": "NNNNNNYNNNNNNYNNNNNNY"
      },
      "geometry": {
        "type": "Point",
        "coordinates": [121.546826, 25.05369]
      }
    },
    {
      "type": "Feature",
      "properties": {
        "id": "5901012516",
        "name": "惠登藥局",
        "phone": "02 -25472432",
        "address": "台北市松山區民生東路3段130巷34號",
        "mask_adult": 0,
        "mask_child": 713,
        "updated": "2020/03/26 10:59:46",
        "available": "星期一上午看診、星期二上午看診、星期三上午看診、星期四上午看診、星期五上午看診、星期六上午看診、星期日上午看診、星期一下午看診、星期二下午看診、星期三下午看診、星期四下午看診、星期五下午看診、星期六下午看診、星期日下午看診、星期一晚上看診、星期二晚上看診、星期三晚上看診、星期四晚上看診、星期五晚上看診、星期六晚上看診、星期日晚上看診",
        "note": "-",
        "custom_note": "",
        "website": "",
        "county": "臺北市",
        "town": "松山區",
        "cunli": "松基里",
        "service_periods": "NNNNNNNNNNNNNNNNNNNNN"
      },
      "geometry": {
        "type": "Point",
        "coordinates": [121.546113, 25.056198]
      }
    },
    {
      "type": "Feature",
      "properties": {
        "id": "5901012561",
        "name": "松田藥局",
        "phone": "02 -25798005",
        "address": "台北市松山區延吉街9－6號",
        "mask_adult": 0,
        "mask_child": 395,
        "updated": "2020/03/26 10:59:46",
        "available": "星期一上午看診、星期二上午看診、星期三上午看診、星期四上午看診、星期五上午看診、星期六上午看診、星期日上午休診、星期一下午看診、星期二下午看診、星期三下午看診、星期四下午看診、星期五下午看診、星期六下午看診、星期日下午休診、星期一晚上看診、星期二晚上看診、星期三晚上看診、星期四晚上看診、星期五晚上看診、星期六晚上休診、星期日晚上休診",
        "note": "每日上午9:40開始實名制口罩販售",
        "custom_note": "",
        "website": "",
        "county": "臺北市",
        "town": "松山區",
        "cunli": "吉仁里",
        "service_periods": "NNNNNNNNNNNNYYNNNNNYY"
      },
      "geometry": {
        "type": "Point",
        "coordinates": [121.55355, 25.047007]
      }
    },
    {
      "type": "Feature",
      "properties": {
        "id": "5901012570",
        "name": "予志藥局",
        "phone": "02 -27623522",
        "address": "台北市松山區富錦街521號",
        "mask_adult": 0,
        "mask_child": 150,
        "updated": "2020/03/26 10:59:46",
        "available": "星期一上午看診、星期二上午看診、星期三上午看診、星期四上午看診、星期五上午看診、星期六上午看診、星期日上午看診、星期一下午看診、星期二下午看診、星期三下午看診、星期四下午看診、星期五下午看診、星期六下午看診、星期日下午看診、星期一晚上看診、星期二晚上看診、星期三晚上看診、星期四晚上看診、星期五晚上看診、星期六晚上看診、星期日晚上休診",
        "note": "-",
        "custom_note": "",
        "website": "",
        "county": "臺北市",
        "town": "松山區",
        "cunli": "富錦里",
        "service_periods": "NNNNNNNNNNNNNNNNNNNNY"
      },
      "geometry": {
        "type": "Point",
        "coordinates": [121.564944, 25.061186]
      }
    },
    {
      "type": "Feature",
      "properties": {
        "id": "5901012598",
        "name": "婕登藥局",
        "phone": "02 -27482893",
        "address": "台北市松山區八德路4段699號",
        "mask_adult": 0,
        "mask_child": 445,
        "updated": "2020/03/26 10:59:46",
        "available": "星期一上午看診、星期二上午看診、星期三上午看診、星期四上午看診、星期五上午看診、星期六上午看診、星期日上午休診、星期一下午看診、星期二下午看診、星期三下午看診、星期四下午看診、星期五下午看診、星期六下午看診、星期日下午休診、星期一晚上看診、星期二晚上看診、星期三晚上看診、星期四晚上看診、星期五晚上看診、星期六晚上看診、星期日晚上看診",
        "note": "-",
        "custom_note": "",
        "website": "",
        "county": "臺北市",
        "town": "松山區",
        "cunli": "慈祐里",
        "service_periods": "NNNNNNYNNNNNNYNNNNNNN"
      },
      "geometry": {
        "type": "Point",
        "coordinates": [121.576644, 25.050207]
      }
    },
    {
      "type": "Feature",
      "properties": {
        "id": "5901012650",
        "name": "銘德藥局",
        "phone": "02 -27511833",
        "address": "台北市松山區八德路2段366巷28號",
        "mask_adult": 600,
        "mask_child": 190,
        "updated": "2020/03/26 10:59:46",
        "available": "星期一上午看診、星期二上午看診、星期三上午看診、星期四上午看診、星期五上午看診、星期六上午看診、星期日上午看診、星期一下午看診、星期二下午看診、星期三下午看診、星期四下午看診、星期五下午看診、星期六下午看診、星期日下午看診、星期一晚上看診、星期二晚上看診、星期三晚上看診、星期四晚上看診、星期五晚上看診、星期六晚上看診、星期日晚上看診",
        "note": "成人口罩，星期一至六下午2:20發號碼牌，2:30販賣，兒童口罩於營業時間販售，星期日另行公告",
        "custom_note": "",
        "website": "",
        "county": "臺北市",
        "town": "松山區",
        "cunli": "中崙里",
        "service_periods": "NNNNNNNNNNNNNNNNNNNNN"
      },
      "geometry": {
        "type": "Point",
        "coordinates": [121.545925, 25.047242]
      }
    },
    {
      "type": "Feature",
      "properties": {
        "id": "5901012669",
        "name": "政昇藥局",
        "phone": "02 -27560286",
        "address": "台北市松山區南京東路5段356號13樓",
        "mask_adult": 12,
        "mask_child": 2546,
        "updated": "2020/03/26 10:59:46",
        "available": "星期一上午看診、星期二上午看診、星期三上午看診、星期四上午看診、星期五上午看診、星期六上午休診、星期日上午休診、星期一下午看診、星期二下午看診、星期三下午看診、星期四下午看診、星期五下午看診、星期六下午休診、星期日下午休診、星期一晚上看診、星期二晚上看診、星期三晚上看診、星期四晚上看診、星期五晚上看診、星期六晚上休診、星期日晚上休診",
        "note": "口罩販售時段：週一至五14-16點止(14點開始發號碼牌)　★週六週日不營業　★清明連續假期不營業",
        "custom_note": "",
        "website": "",
        "county": "臺北市",
        "town": "松山區",
        "cunli": "新聚里",
        "service_periods": "NNNNNYYNNNNNYYNNNNNYY"
      },
      "geometry": {
        "type": "Point",
        "coordinates": [121.569691, 25.051063]
      }
    },
    {
      "type": "Feature",
      "properties": {
        "id": "5901012712",
        "name": "立康大藥局",
        "phone": "02 -27471749",
        "address": "台北市松山區八德路四段2－1號",
        "mask_adult": 0,
        "mask_child": 203,
        "updated": "2020/03/26 10:59:46",
        "available": "星期一上午看診、星期二上午看診、星期三上午看診、星期四上午看診、星期五上午看診、星期六上午看診、星期日上午看診、星期一下午看診、星期二下午看診、星期三下午看診、星期四下午看診、星期五下午看診、星期六下午看診、星期日下午看診、星期一晚上看診、星期二晚上看診、星期三晚上看診、星期四晚上看診、星期五晚上看診、星期六晚上看診、星期日晚上看診",
        "note": "口罩周一到週五9:30領號碼牌留健保卡~12點領口罩取回健保卡~下午2點截止領取",
        "custom_note": "",
        "website": "",
        "county": "臺北市",
        "town": "松山區",
        "cunli": "復盛里",
        "service_periods": "NNNNNNNNNNNNNNNNNNNNN"
      },
      "geometry": {
        "type": "Point",
        "coordinates": [121.558111, 25.048117]
      }
    },
    {
      "type": "Feature",
      "properties": {
        "id": "5901012749",
        "name": "躍獅松和藥局",
        "phone": "02 -27492569",
        "address": "台北市松山區八德路四段666－1號",
        "mask_adult": 0,
        "mask_child": 1311,
        "updated": "2020/03/26 10:59:46",
        "available": "星期一上午休診、星期二上午休診、星期三上午休診、星期四上午休診、星期五上午休診、星期六上午休診、星期日上午休診、星期一下午看診、星期二下午看診、星期三下午看診、星期四下午看診、星期五下午看診、星期六下午看診、星期日下午看診、星期一晚上看診、星期二晚上看診、星期三晚上看診、星期四晚上看診、星期五晚上看診、星期六晚上看診、星期日晚上看診",
        "note": "口罩下午1530~1730.售完為止",
        "custom_note": "",
        "website": "",
        "county": "臺北市",
        "town": "松山區",
        "cunli": "慈祐里",
        "service_periods": "YYYYYYYNNNNNNNNNNNNNN"
      },
      "geometry": {
        "type": "Point",
        "coordinates": [121.576092, 25.04979]
      }
    },
    {
      "type": "Feature",
      "properties": {
        "id": "5901012758",
        "name": "京東藥局",
        "phone": "02 -27679503",
        "address": "台北市松山區南京東路五段272號",
        "mask_adult": 0,
        "mask_child": 322,
        "updated": "2020/03/26 10:59:46",
        "available": "星期一上午看診、星期二上午看診、星期三上午看診、星期四上午看診、星期五上午看診、星期六上午看診、星期日上午看診、星期一下午看診、星期二下午看診、星期三下午看診、星期四下午看診、星期五下午看診、星期六下午看診、星期日下午看診、星期一晚上看診、星期二晚上看診、星期三晚上看診、星期四晚上看診、星期五晚上看診、星期六晚上看診、星期日晚上看診",
        "note": "下午15:30開始販賣口罩",
        "custom_note": "",
        "website": "",
        "county": "臺北市",
        "town": "松山區",
        "cunli": "新聚里",
        "service_periods": "NNNNNNNNNNNNNNNNNNNNN"
      },
      "geometry": {
        "type": "Point",
        "coordinates": [121.566945, 25.05114]
      }
    },
    {
      "type": "Feature",
      "properties": {
        "id": "5901012767",
        "name": "晨新藥局",
        "phone": "02 -27422951",
        "address": "台北市松山區八德路4段91巷1－1號",
        "mask_adult": 0,
        "mask_child": 102,
        "updated": "2020/03/26 10:59:46",
        "available": "星期一上午看診、星期二上午看診、星期三上午看診、星期四上午看診、星期五上午看診、星期六上午休診、星期日上午休診、星期一下午看診、星期二下午看診、星期三下午看診、星期四下午看診、星期五下午看診、星期六下午看診、星期日下午看診、星期一晚上看診、星期二晚上看診、星期三晚上看診、星期四晚上看診、星期五晚上看診、星期六晚上看診、星期日晚上看診",
        "note": "週一~週五：16:00~18:00發放。;週日：12:00~14:00發放。",
        "custom_note": "",
        "website": "",
        "county": "臺北市",
        "town": "松山區",
        "cunli": "吉祥里",
        "service_periods": "NNNNNYYNNNNNYNNNNNNYN"
      },
      "geometry": {
        "type": "Point",
        "coordinates": [121.560761, 25.048944]
      }
    },
    {
      "type": "Feature",
      "properties": {
        "id": "5901012963",
        "name": "綠之家藥局",
        "phone": "02 -25289595",
        "address": "台北市松山區延壽街428號",
        "mask_adult": 0,
        "mask_child": 0,
        "updated": "2020/03/26 11:00:05",
        "available": "星期一上午看診、星期二上午看診、星期三上午看診、星期四上午看診、星期五上午看診、星期六上午看診、星期日上午休診、星期一下午看診、星期二下午看診、星期三下午看診、星期四下午看診、星期五下午看診、星期六下午看診、星期日下午看診、星期一晚上看診、星期二晚上看診、星期三晚上看診、星期四晚上看診、星期五晚上看診、星期六晚上看診、星期日晚上看診",
        "note": "-",
        "custom_note": "",
        "website": "",
        "county": "臺北市",
        "town": "松山區",
        "cunli": "龍田里",
        "service_periods": "NNNNNNYNNNNNNNNNNNNNN"
      },
      "geometry": {
        "type": "Point",
        "coordinates": [121.556217, 25.056197]
      }
    },
    {
      "type": "Feature",
      "properties": {
        "id": "5901013004",
        "name": "德安藥局",
        "phone": "02 -25782670",
        "address": "台北市松山區八德路3段195號2樓",
        "mask_adult": 0,
        "mask_child": 2059,
        "updated": "2020/03/26 10:59:46",
        "available": "星期一上午看診、星期二上午看診、星期三上午看診、星期四上午看診、星期五上午看診、星期六上午看診、星期日上午休診、星期一下午看診、星期二下午看診、星期三下午看診、星期四下午看診、星期五下午看診、星期六下午看診、星期日下午休診、星期一晚上看診、星期二晚上看診、星期三晚上看診、星期四晚上看診、星期五晚上看診、星期六晚上休診、星期日晚上休診",
        "note": "-",
        "custom_note": "",
        "website": "",
        "county": "臺北市",
        "town": "松山區",
        "cunli": "復勢里",
        "service_periods": "NNNNNNYNNNNNNYNNNNNYY"
      },
      "geometry": {
        "type": "Point",
        "coordinates": [121.55619, 25.048163]
      }
    },
    {
      "type": "Feature",
      "properties": {
        "id": "5901150280",
        "name": "慈航藥局",
        "phone": "02 -28815988",
        "address": "台北市士林區文林路441號",
        "mask_adult": 0,
        "mask_child": 25,
        "updated": "2020/03/26 10:59:46",
        "available": "星期一上午看診、星期二上午看診、星期三上午看診、星期四上午看診、星期五上午看診、星期六上午看診、星期日上午看診、星期一下午看診、星期二下午看診、星期三下午看診、星期四下午看診、星期五下午看診、星期六下午看診、星期日下午看診、星期一晚上看診、星期二晚上看診、星期三晚上看診、星期四晚上看診、星期五晚上看診、星期六晚上看診、星期日晚上看診",
        "note": "口罩販賣時間為早上0830起領取號碼牌並現場排隊購買至早上0930。96年次以下孩童口罩不限時間領取。請自備零錢",
        "custom_note": "口罩販賣時間早上0830起領取號碼牌於現場排隊購買至早上0930。早場未販售完之口罩於晚間2030-2130販售。13歲以下兒童口罩於營業時間皆販售。",
        "website": "",
        "county": "臺北市",
        "town": "士林區",
        "cunli": "福德里",
        "service_periods": "NNNNNNNNNNNNNNNNNNNNN"
      },
      "geometry": {
        "type": "Point",
        "coordinates": [121.524569, 25.094807]
      }
    },
    {
      "type": "Feature",
      "properties": {
        "id": "5901150342",
        "name": "士林三安藥局",
        "phone": "02 -28812631",
        "address": "台北市士林區大南路11號",
        "mask_adult": 24,
        "mask_child": 1675,
        "updated": "2020/03/26 10:59:46",
        "available": "星期一上午看診、星期二上午看診、星期三上午看診、星期四上午看診、星期五上午看診、星期六上午看診、星期日上午看診、星期一下午看診、星期二下午看診、星期三下午看診、星期四下午看診、星期五下午看診、星期六下午看診、星期日下午看診、星期一晚上看診、星期二晚上看診、星期三晚上看診、星期四晚上看診、星期五晚上看診、星期六晚上看診、星期日晚上看診",
        "note": "-",
        "custom_note": "",
        "website": "",
        "county": "臺北市",
        "town": "士林區",
        "cunli": "仁勇里",
        "service_periods": "NNNNNNNNNNNNNNNNNNNNY"
      },
      "geometry": {
        "type": "Point",
        "coordinates": [121.526009, 25.088981]
      }
    },
    {
      "type": "Feature",
      "properties": {
        "id": "5901150351",
        "name": "啟宏藥局",
        "phone": "02 -28825811",
        "address": "台北市士林區大東路90－1號1樓",
        "mask_adult": 0,
        "mask_child": 313,
        "updated": "2020/03/26 10:59:46",
        "available": "星期一上午看診、星期二上午看診、星期三上午看診、星期四上午看診、星期五上午看診、星期六上午休診、星期日上午休診、星期一下午看診、星期二下午看診、星期三下午看診、星期四下午看診、星期五下午看診、星期六下午休診、星期日下午休診、星期一晚上看診、星期二晚上看診、星期三晚上看診、星期四晚上看診、星期五晚上看診、星期六晚上休診、星期日晚上休診",
        "note": "防疫口罩販售時間:週一至週五早上9:00開賣.週六.週日及國定假日休息",
        "custom_note": "",
        "website": "",
        "county": "臺北市",
        "town": "士林區",
        "cunli": "仁勇里",
        "service_periods": "NNNNNYYNNNNNYYNNNNNYY"
      },
      "geometry": {
        "type": "Point",
        "coordinates": [121.525628, 25.091459]
      }
    },
    {
      "type": "Feature",
      "properties": {
        "id": "5901150397",
        "name": "博惠藥局",
        "phone": "02 -28320379",
        "address": "台北巿士林區華榮街16號",
        "mask_adult": 0,
        "mask_child": 2617,
        "updated": "2020/03/26 10:59:46",
        "available": "星期一上午看診、星期二上午看診、星期三上午看診、星期四上午看診、星期五上午看診、星期六上午看診、星期日上午看診、星期一下午看診、星期二下午看診、星期三下午看診、星期四下午看診、星期五下午看診、星期六下午看診、星期日下午看診、星期一晚上看診、星期二晚上看診、星期三晚上看診、星期四晚上看診、星期五晚上看診、星期六晚上看診、星期日晚上休診",
        "note": "口罩代售 ，週一至五，17:00起，周六周日16:00起 ， 現場排隊 ， 不預發號碼牌",
        "custom_note": "",
        "website": "",
        "county": "",
        "town": "",
        "cunli": "",
        "service_periods": "NNNNNNNNNNNNNNNNNNNNY"
      },
      "geometry": {
        "type": "Point",
        "coordinates": [121.5236009, 25.0955096]
      }
    },
    {
      "type": "Feature",
      "properties": {
        "id": "5901150459",
        "name": "有德堂大藥局",
        "phone": "02 -28318387",
        "address": "台北市士林區中山北路6段227號",
        "mask_adult": 0,
        "mask_child": 1869,
        "updated": "2020/03/26 10:59:46",
        "available": "星期一上午看診、星期二上午看診、星期三上午看診、星期四上午看診、星期五上午看診、星期六上午看診、星期日上午休診、星期一下午看診、星期二下午看診、星期三下午看診、星期四下午看診、星期五下午看診、星期六下午看診、星期日下午休診、星期一晚上看診、星期二晚上看診、星期三晚上看診、星期四晚上看診、星期五晚上看診、星期六晚上看診、星期日晚上休診",
        "note": "-",
        "custom_note": "",
        "website": "",
        "county": "臺北市",
        "town": "士林區",
        "cunli": "蘭興里",
        "service_periods": "NNNNNNYNNNNNNYNNNNNNY"
      },
      "geometry": {
        "type": "Point",
        "coordinates": [121.525115, 25.108884]
      }
    }
  ]
}
